{
  "images" : [
    {
      "idiom" : "universal",
      "filename" : "papers.co-vh62-samsung-galaxy-s6-background-blue-pattern-33-iphone6-wallpaper.jpg",
      "scale" : "1x"
    },
    {
      "idiom" : "universal",
      "scale" : "2x"
    },
    {
      "idiom" : "universal",
      "scale" : "3x"
    }
  ],
  "info" : {
    "version" : 1,
    "author" : "xcode"
  }
}